{
  "timeZone": "Pacific/Pago_Pago",
  "dependencies": {
    "libraries": [{
      "userSymbol": "OAuth2",
      "libraryId": "1B7FSrk5Zi6L1rSxxTDgDEUsPzlukDsi4KGuTMorsTQHhGBzBkMun4iDF",
      "version": "24",
      "developmentMode": true
    }]
}, "dataStudio": 